Ejercicios de estadística descriptiva multivariante
…
    Published

      October 24, 2024

Dídac Capó Peña:

Ver en GitHub

Enunciado y datos

Una empresa quiere analizar si existe relación entre las ventas de sus productos, la inversión en publicidad y la satisfacción del cliente. Los datos que corresponden a las ventas han sido registrados en miles de unidades, el gasto en publicidad en miles de euros y la puntuación de satisfacción del cliente en una escala de 1 a 10 para 30 productos, los puedes descargar en el siguiente enlace: datos empresa

Visualizar y leer los datos:

# A tibble: 30 × 5
   Producto Ventas Publicidad Satisfaccion_cliente Marca
      <dbl>  <dbl>      <dbl>                <dbl> <chr>
 1        1    150         30                  8.2 A    
 2        2    200         40                  9.1 B    
 3        3    180         35                  8.7 C    
 4        4    120         25                  7.5 A    
 5        5    170         32                  8   B    
 6        6    140         28                  7.9 C    
 7        7    160         30                  8.5 A    
 8        8    210         42                  9.3 B    
 9        9    130         27                  7.8 C    
10       10    155         30                  8.1 A    
# ℹ 20 more rows

Apartado 1

Organiza el conjunto de datos en una matriz, donde cada fila corresponda a un producto y cada columna a una variable, siendo la variable “Producto” únicamente un identificador. A continuación, presenta la matriz de dispersión entre las variables, utilizando puntos coloreados según el tipo de marca (consulta la sección 2.4.2 de los apuntes). Comenta los resultados obtenidos, prestando especial atención a lo que indican los valores de las correlaciones entre las variables.

Respuesta

Nuestra matriz de datos, que llamaremos \(X\), es la siguiente:

# A tibble: 30 × 4
   Ventas Publicidad Satisfaccion_cliente Marca
    <dbl>      <dbl>                <dbl> <chr>
 1    150         30                  8.2 A    
 2    200         40                  9.1 B    
 3    180         35                  8.7 C    
 4    120         25                  7.5 A    
 5    170         32                  8   B    
 6    140         28                  7.9 C    
 7    160         30                  8.5 A    
 8    210         42                  9.3 B    
 9    130         27                  7.8 C    
10    155         30                  8.1 A    
# ℹ 20 more rows
…
